<svg xmlns="http://www.w3.org/2000/svg" width="24" height="24" viewBox="0 0 24 24">
  <g id="Group_148" data-name="Group 148" transform="translate(-5613 426)">
    <rect id="Rectangle_130" data-name="Rectangle 130" width="24" height="24" transform="translate(5613 -426)" fill="#a29e9e" opacity="0"/>
    <g id="Search_icon" data-name="Search icon" transform="translate(5615 -424)">
      <line id="Line_1" data-name="Line 1" x1="5.589" y1="5.589" transform="translate(14.411 14.411)" fill="none" stroke="#fff" stroke-linecap="square" stroke-miterlimit="10" stroke-width="2"/>
      <circle id="Ellipse_1" data-name="Ellipse 1" cx="8.137" cy="8.137" r="8.137" fill="none" stroke="#fff" stroke-linecap="square" stroke-miterlimit="10" stroke-width="2"/>
    </g>
  </g>
</svg>
